…
## Drop MDL

MDL and Reporting Limit are near duplicates. Where they do not match, it
is because MDL is missing (`NA`), so we use Reporting Limits

``` r
raw_data %>%
  mutate(Reporting.Limit = replace_na(Reporting.Limit, -1),
         MDL =  replace_na(MDL, -1)) %>%
  filter(Reporting.Limit != MDL)
#> # A tibble: 434 x 14
#>    Sample.Point.Na~ Sample.Date         Sample.Id Sample.Type CAS.Name
#>    <chr>            <dttm>              <chr>     <chr>       <chr>   
#>  1 WIL-01           2010-06-14 09:33:00 WIL-01 6~ SURFACE WA~ ENTEROC~
#>  2 WIL-01           2010-06-16 09:32:00 WIL-01 6~ SURFACE WA~ ENTEROC~
#>  3 WIL-01           2010-06-02 09:30:00 WIL-01 6~ SURFACE WA~ ENTEROC~
#>  4 WIL-01           2010-06-21 09:30:00 WIL-01 6~ SURFACE WA~ ENTEROC~
#>  5 WIL-01           2010-06-23 09:17:00 WIL-01 6~ SURFACE WA~ ENTEROC~
#>  6 WIL-01           2010-06-24 11:00:00 WIL-01 6~ SURFACE WA~ ENTEROC~
#>  7 WIL-01           2010-06-28 09:49:00 WIL-01 6~ SURFACE WA~ ENTEROC~
#>  8 WIL-01           2010-06-29 12:27:00 WIL-01 6~ SURFACE WA~ ENTEROC~
#>  9 WIL-01           2010-06-30 09:35:00 WIL-01 6~ SURFACE WA~ ENTEROC~
#> 10 WIL-01           2010-06-07 09:24:00 WIL-01 6~ SURFACE WA~ ENTEROC~
#> # ... with 424 more rows, and 9 more variables: Concentration <dbl>,
#> #   Parameter.Unit <chr>, Lab.Qualifier <chr>, Reporting.Limit <dbl>,
#> #   Test.Code <chr>, Dilution.Factor <dbl>, MDL <dbl>,
#> #   Sample.Type.Qualifier <chr>, Comment <chr>
```
…
